Traceback (most recent call last):
  File "main.py", line 91, in <module>
    sys.exit(main())
  File "main.py", line 38, in main
    network_manager = init_server()
  File "main.py", line 23, in init_server
    return NetworkServerManager(localaddr=(host, int(DEFAULT_PORT)))
  File "/root/AgeOfPixels/server/network_server_manager.py", line 41, in __init__
    Server.__init__(self, *args, **kwargs)
  File "/root/AgeOfPixels/venv/lib/python3.6/site-packages/PodSixNet/Server.py", line 19, in __init__
    self.bind(localaddr)
  File "/usr/lib/python3.6/asyncore.py", line 329, in bind
    return self.socket.bind(addr)
OSError: [Errno 99] Cannot assign requested address
Traceback (most recent call last):
  File "main.py", line 91, in <module>
    sys.exit(main())
  File "main.py", line 38, in main
    network_manager = init_server()
  File "main.py", line 23, in init_server
    return NetworkServerManager(localaddr=(host, int(DEFAULT_PORT)))
  File "/root/AgeOfPixels/server/network_server_manager.py", line 41, in __init__
    Server.__init__(self, *args, **kwargs)
  File "/root/AgeOfPixels/venv/lib/python3.6/site-packages/PodSixNet/Server.py", line 19, in __init__
    self.bind(localaddr)
  File "/usr/lib/python3.6/asyncore.py", line 329, in bind
    return self.socket.bind(addr)
OSError: [Errno 99] Cannot assign requested address
Traceback (most recent call last):
  File "main.py", line 91, in <module>
    sys.exit(main())
  File "main.py", line 38, in main
    network_manager = init_server()
  File "main.py", line 23, in init_server
    return NetworkServerManager(localaddr=(host, int(DEFAULT_PORT)))
  File "/root/AgeOfPixels/server/network_server_manager.py", line 41, in __init__
    Server.__init__(self, *args, **kwargs)
  File "/root/AgeOfPixels/venv/lib/python3.6/site-packages/PodSixNet/Server.py", line 19, in __init__
    self.bind(localaddr)
  File "/usr/lib/python3.6/asyncore.py", line 329, in bind
    return self.socket.bind(addr)
OSError: [Errno 99] Cannot assign requested address
Traceback (most recent call last):
  File "main.py", line 91, in <module>
    sys.exit(main())
  File "main.py", line 38, in main
    network_manager = init_server()
  File "main.py", line 23, in init_server
    return NetworkServerManager(localaddr=(host, int(DEFAULT_PORT)))
  File "/root/AgeOfPixels/server/network_server_manager.py", line 41, in __init__
    Server.__init__(self, *args, **kwargs)
  File "/root/AgeOfPixels/venv/lib/python3.6/site-packages/PodSixNet/Server.py", line 19, in __init__
    self.bind(localaddr)
  File "/usr/lib/python3.6/asyncore.py", line 329, in bind
    return self.socket.bind(addr)
OSError: [Errno 99] Cannot assign requested address
Traceback (most recent call last):
  File "main.py", line 91, in <module>
    sys.exit(main())
  File "main.py", line 38, in main
    network_manager = init_server()
  File "main.py", line 23, in init_server
    return NetworkServerManager(localaddr=(host, int(DEFAULT_PORT)))
  File "/root/AgeOfPixels/server/network_server_manager.py", line 41, in __init__
    Server.__init__(self, *args, **kwargs)
  File "/root/AgeOfPixels/venv/lib/python3.6/site-packages/PodSixNet/Server.py", line 19, in __init__
    self.bind(localaddr)
  File "/usr/lib/python3.6/asyncore.py", line 329, in bind
    return self.socket.bind(addr)
OSError: [Errno 99] Cannot assign requested address
